<?xml version="1.0" encoding="UTF-8" standalone="no"?>
<!-- Created with Inkscape (http://www.inkscape.org/) -->

<svg
   xmlns:dc="http://purl.org/dc/elements/1.1/"
   xmlns:cc="http://creativecommons.org/ns#"
   xmlns:rdf="http://www.w3.org/1999/02/22-rdf-syntax-ns#"
   xmlns:svg="http://www.w3.org/2000/svg"
   xmlns="http://www.w3.org/2000/svg"
   xmlns:sodipodi="http://sodipodi.sourceforge.net/DTD/sodipodi-0.dtd"
   xmlns:inkscape="http://www.inkscape.org/namespaces/inkscape"
   id="svg5592"
   version="1.1"
   inkscape:version="0.91 r13725"
   xml:space="preserve"
   width="368.6825"
   height="250.42999"
   viewBox="0 0 368.6825 250.42999"
   sodipodi:docname="eu-flag.svg"><metadata
     id="metadata5598"><rdf:RDF><cc:Work
         rdf:about=""><dc:format>image/svg+xml</dc:format><dc:type
           rdf:resource="http://purl.org/dc/dcmitype/StillImage" /><dc:title></dc:title></cc:Work></rdf:RDF></metadata><defs
     id="defs5596" /><sodipodi:namedview
     pagecolor="#ffffff"
     bordercolor="#666666"
     borderopacity="1"
     objecttolerance="10"
     gridtolerance="10"
     guidetolerance="10"
     inkscape:pageopacity="0"
     inkscape:pageshadow="2"
     inkscape:window-width="1438"
     inkscape:window-height="879"
     id="namedview5594"
     showgrid="false"
     inkscape:zoom="1.0068386"
     inkscape:cx="377.94644"
     inkscape:cy="41.54789"
     inkscape:window-x="0"
     inkscape:window-y="19"
     inkscape:window-maximized="0"
     inkscape:current-layer="g5600"
     fit-margin-top="0"
     fit-margin-left="0"
     fit-margin-right="0"
     fit-margin-bottom="0" /><g
     id="g5600"
     inkscape:groupmode="layer"
     inkscape:label="ink_ext_XXXXXX"
     transform="matrix(1.25,0,0,-1.25,0,990)"><g
       id="g5602"
       transform="matrix(0.1,0,0,0.1,-148.754,281.441)"
       inkscape:export-filename="/home/aisc/Repos/j++/ob-recipes/themes/recipes/static/images/eu-flag.png"
       inkscape:export-xdpi="29.293499"
       inkscape:export-ydpi="29.293499"><path
         d="m 1487.54,3102.15 2949.46,0 0,2003.44 -2949.46,0 0,-2003.44 z"
         style="fill:#ffffff;fill-opacity:1;fill-rule:nonzero;stroke:none"
         id="path5604"
         inkscape:connector-curvature="0" /><path
         d="m 1544.25,3159.96 2836.02,0 0,1890.7 -2836.02,0 0,-1890.7 z"
         style="fill:#254aa5;fill-opacity:1;fill-rule:nonzero;stroke:none"
         id="path5606"
         inkscape:connector-curvature="0" /><path
         d="m 2901.83,4638.71 59.85,43.67 59.84,-43.67 -22.77,70.63 60.78,43.67 -74.92,0 -22.93,71.48 -22.93,-71.56 -74.89,0.08 60.75,-43.67 -22.78,-70.63"
         style="fill:#ffffff;fill-opacity:1;fill-rule:nonzero;stroke:none"
         id="path5608"
         inkscape:connector-curvature="0" /><path
         d="m 2592.14,4555.51 59.85,43.67 59.8,-43.67 -22.73,70.62 60.74,43.67 -74.92,0 -22.93,71.57 -22.93,-71.64 -74.88,0.07 60.74,-43.67 -22.74,-70.62"
         style="fill:#ffffff;fill-opacity:1;fill-rule:nonzero;stroke:none"
         id="path5610"
         inkscape:connector-curvature="0" /><path
         d="m 2425.39,4514.26 -22.93,-71.64 -74.89,0.08 60.75,-43.68 -22.78,-70.62 59.85,43.67 59.84,-43.67 -22.77,70.62 60.74,43.68 -74.88,0 -22.93,71.56"
         style="fill:#ffffff;fill-opacity:1;fill-rule:nonzero;stroke:none"
         id="path5612"
         inkscape:connector-curvature="0" /><path
         d="m 2342.26,4062.77 59.81,-43.67 -22.74,70.63 60.74,43.67 -74.88,0 -22.93,71.56 -22.93,-71.72 -74.92,0.16 60.78,-43.67 -22.77,-70.63 59.84,43.67"
         style="fill:#ffffff;fill-opacity:1;fill-rule:nonzero;stroke:none"
         id="path5614"
         inkscape:connector-curvature="0" /><path
         d="m 2448.32,3823.16 -22.93,71.57 -22.93,-71.64 -74.89,0.07 60.75,-43.67 -22.78,-70.62 59.85,43.75 59.84,-43.75 -22.77,70.62 60.74,43.67 -74.88,0"
         style="fill:#ffffff;fill-opacity:1;fill-rule:nonzero;stroke:none"
         id="path5616"
         inkscape:connector-curvature="0" /><path
         d="m 2675.35,3596.13 -22.93,71.49 -22.89,-71.57 -74.92,0.08 60.74,-43.67 -22.74,-70.62 59.85,43.67 59.8,-43.67 -22.73,70.62 60.74,43.67 -74.92,0"
         style="fill:#ffffff;fill-opacity:1;fill-rule:nonzero;stroke:none"
         id="path5618"
         inkscape:connector-curvature="0" /><path
         d="m 2984.65,3513.87 -22.94,71.56 -22.89,-71.64 -74.92,0.08 60.74,-43.67 -22.73,-70.63 59.84,43.67 59.81,-43.67 -22.77,70.63 60.78,43.67 -74.92,0"
         style="fill:#ffffff;fill-opacity:1;fill-rule:nonzero;stroke:none"
         id="path5620"
         inkscape:connector-curvature="0" /><path
         d="m 3293.95,3596.13 -22.9,71.49 -22.96,-71.57 -74.85,0.08 60.71,-43.67 -22.74,-70.62 59.84,43.67 59.85,-43.67 -22.81,70.62 60.78,43.67 -74.92,0"
         style="fill:#ffffff;fill-opacity:1;fill-rule:nonzero;stroke:none"
         id="path5622"
         inkscape:connector-curvature="0" /><path
         d="m 3521.05,3823.16 -22.96,71.57 -22.97,-71.64 -74.85,0.07 60.78,-43.67 -22.81,-70.62 59.85,43.75 59.84,-43.75 -22.81,70.62 60.78,43.67 -74.85,0"
         style="fill:#ffffff;fill-opacity:1;fill-rule:nonzero;stroke:none"
         id="path5624"
         inkscape:connector-curvature="0" /><path
         d="m 3678.16,4134.26 -74.92,0 -22.97,71.56 -22.89,-71.64 -74.92,0.08 60.78,-43.67 -22.73,-70.63 59.76,43.75 59.85,-43.75 -22.74,70.63 60.78,43.67"
         style="fill:#ffffff;fill-opacity:1;fill-rule:nonzero;stroke:none"
         id="path5626"
         inkscape:connector-curvature="0" /><path
         d="m 3438.24,4329.34 59.85,43.67 59.84,-43.67 -22.81,70.62 60.78,43.59 -74.85,0 -22.96,71.57 -22.97,-71.64 -74.85,0.07 60.78,-43.59 -22.81,-70.62"
         style="fill:#ffffff;fill-opacity:1;fill-rule:nonzero;stroke:none"
         id="path5628"
         inkscape:connector-curvature="0" /><path
         d="m 3271.91,4741.29 -22.89,-71.64 -74.92,0.15 60.7,-43.75 -22.73,-70.62 59.92,43.75 59.77,-43.75 -22.74,70.62 60.78,43.75 -75,0 -22.89,71.49"
         style="fill:#ffffff;fill-opacity:1;fill-rule:nonzero;stroke:none"
         id="path5630"
         inkscape:connector-curvature="0" /></g></g></svg>